{
  "_class": "group",
  "do_objectID": "20D86FF7-0245-4A28-9F1C-7769B3B3A32C",
  "exportOptions": {
    "_class": "exportOptions",
    "exportFormats": [
    ],
    "includedLayerIds": [
    ],
    "layerOptions": 0,
    "shouldTrim": false
  },
  "frame": {
    "_class": "rect",
    "constrainProportions": false,
    "height": 82,
    "width": 1295,
    "x": 344,
    "y": 71
  },
  "hasClickThrough": false,
  "isFlippedHorizontal": false,
  "isFlippedVertical": false,
  "isLocked": false,
  "isVisible": true,
  "layerListExpandedType": 0,
  "layers": [
    {
      "class": "shapeGroup",
      "id": "C1876997-F0CB-4D59-98A1-9F772F200B07"
    },
    {
      "class": "shapeGroup",
      "id": "97D12ECB-1141-45DE-859E-8F2101C26BDC"
    },
    {
      "class": "symbolInstance",
      "id": "36600E3E-1C72-433A-9912-CD01078540CA"
    },
    {
      "class": "symbolInstance",
      "id": "924E0173-E930-4407-8D02-FC7600C1EC1C"
    },
    {
      "class": "symbolInstance",
      "id": "5ABAFA19-F240-4B94-A9EC-A8A252A23441"
    },
    {
      "class": "symbolInstance",
      "id": "A2F034F1-E56D-467F-938A-287C752D0AA0"
    },
    {
      "class": "shapeGroup",
      "id": "BA72B4E9-10C9-42FC-A659-5A421394E5BE"
    },
    {
      "class": "symbolInstance",
      "id": "40BE9A81-0510-4155-BC0E-E45ED339F251"
    },
    {
      "class": "symbolInstance",
      "id": "9AB0FB39-6F0B-48B0-897D-9C30B76C5A6E"
    },
    {
      "class": "symbolInstance",
      "id": "79CFEC28-35C0-40B9-A7D3-0B38DEC50E51"
    },
    {
      "class": "symbolInstance",
      "id": "89A4819F-4BE1-493F-A90F-DE0FC427945A"
    },
    {
      "class": "symbolInstance",
      "id": "6D72E458-648A-4092-9BFA-CFFE5B2C76FD"
    },
    {
      "class": "symbolInstance",
      "id": "F1437712-5174-446C-A395-95A8D31FAEF0"
    },
    {
      "class": "symbolInstance",
      "id": "6B57915E-D869-4B33-9053-B3AC5EB4D9B6"
    },
    {
      "class": "symbolInstance",
      "id": "03CD6CA9-488C-474B-96EC-BE66D5AC55FD"
    },
    {
      "class": "symbolInstance",
      "id": "E2FD0A9E-EA93-4D48-BA1B-151E972B1EEF"
    },
    {
      "class": "symbolInstance",
      "id": "5B1E81F0-1606-467B-82AC-AE0C2A81E71F"
    },
    {
      "class": "symbolInstance",
      "id": "C6C4D021-EA78-4C34-B997-3393AEA77C94"
    },
    {
      "class": "symbolInstance",
      "id": "519481F3-9957-4662-94E9-950C2789038F"
    },
    {
      "class": "symbolInstance",
      "id": "DBCE051E-1D12-4C54-B419-4AEEF9CF9F5C"
    },
    {
      "class": "symbolInstance",
      "id": "90AA39B3-5CE3-418A-9CA2-62DA4396FE15"
    },
    {
      "class": "symbolInstance",
      "id": "83558D02-35C1-4E47-9518-3481760F8B6E"
    },
    {
      "class": "symbolInstance",
      "id": "579D7E28-2501-42D0-8917-AEE309E9DA3C"
    },
    {
      "class": "symbolInstance",
      "id": "448BA8EA-82CB-443E-843F-2005ECC5D1FC"
    },
    {
      "class": "symbolInstance",
      "id": "4F7BF7F1-6D37-4E31-8FE1-ADF6B498EE41"
    },
    {
      "class": "symbolInstance",
      "id": "7ACD490E-4086-461E-811C-1EE207936BB8"
    },
    {
      "class": "symbolInstance",
      "id": "6E3C09B5-BE25-4363-B4DA-43A12310ACC0"
    },
    {
      "class": "symbolInstance",
      "id": "B354E730-0AE2-4A80-B327-A4341619E9A6"
    },
    {
      "class": "symbolInstance",
      "id": "94CD1DBA-8321-4A93-A3B7-4A0524F81121"
    },
    {
      "class": "symbolInstance",
      "id": "924E1191-2124-47F8-82C8-869AD44B73C4"
    },
    {
      "class": "symbolInstance",
      "id": "7F36E581-2372-4597-B65A-18911F8267CB"
    },
    {
      "class": "symbolInstance",
      "id": "8C66BEC6-FB9E-40B5-ACA4-B2BC99354928"
    },
    {
      "class": "symbolInstance",
      "id": "7CFCA542-D16D-4556-9665-DF5E73EC6C29"
    },
    {
      "class": "symbolInstance",
      "id": "2E4C3DDF-119A-47D9-AC03-BB3D5B9650E2"
    },
    {
      "class": "symbolInstance",
      "id": "DF8498FC-B696-4957-B3AF-035B4306DE72"
    },
    {
      "class": "symbolInstance",
      "id": "B6763AE5-F04A-44C7-972D-CBCEF07C29AF"
    },
    {
      "class": "symbolInstance",
      "id": "2AD67444-0A3F-4900-8CD6-C1A961453B9E"
    },
    {
      "class": "symbolInstance",
      "id": "25CCEE46-3EBA-47F8-94F6-5D8E54896EF7"
    },
    {
      "class": "symbolInstance",
      "id": "3B1AEB8B-2F49-49DC-BDBA-D82E5E31347A"
    },
    {
      "class": "symbolInstance",
      "id": "568019CB-D495-4F57-B2AE-035788BA8CA2"
    },
    {
      "class": "symbolInstance",
      "id": "4C3BE08F-DF71-4CCA-9A62-7030BEC470CC"
    },
    {
      "class": "symbolInstance",
      "id": "13163BDC-B6DD-433A-BCCC-3AC6D0FF52B6"
    },
    {
      "class": "symbolInstance",
      "id": "95BCCEC9-0638-4C11-B8F5-518FA4DAF054"
    },
    {
      "class": "symbolInstance",
      "id": "42F7F953-2431-4078-A13E-535A541B94C7"
    },
    {
      "class": "symbolInstance",
      "id": "AF49DA1A-439F-40DC-ACB9-CBB9C5E9FBDD"
    },
    {
      "class": "symbolInstance",
      "id": "007728CB-7F0D-4F40-9CAC-96912134C95D"
    },
    {
      "class": "symbolInstance",
      "id": "E06ECE66-C5C4-4EE8-B677-7B1AF17E6CC9"
    },
    {
      "class": "symbolInstance",
      "id": "0734FE65-20FE-444A-A90C-2782BFC37511"
    },
    {
      "class": "symbolInstance",
      "id": "F77FF546-7F31-425E-89A1-98682EF60FA7"
    },
    {
      "class": "symbolInstance",
      "id": "C287C71C-19D4-4324-9E3D-636E289BC9E6"
    },
    {
      "class": "symbolInstance",
      "id": "47637A69-BC30-4FF9-ACD7-BAD0A48BC9EC"
    },
    {
      "class": "symbolInstance",
      "id": "F760670C-85BE-483F-9F07-7F1880A95BC1"
    },
    {
      "class": "symbolInstance",
      "id": "E9073314-33B8-4D17-9625-E322AF5273EB"
    },
    {
      "class": "symbolInstance",
      "id": "AD505641-2787-4178-B620-504C82C141B4"
    },
    {
      "class": "symbolInstance",
      "id": "30CEDE54-D2C8-40B1-B603-0FDB1A0DD2E6"
    },
    {
      "class": "symbolInstance",
      "id": "0CDD9FCC-66DC-4FAB-AA6C-ECADAA85CF59"
    },
    {
      "class": "symbolInstance",
      "id": "7F186E4F-D8B6-4F36-8EBD-20E9E797B32A"
    },
    {
      "class": "symbolInstance",
      "id": "40448165-FF21-43AF-88FD-0BBC12A20DF2"
    },
    {
      "class": "symbolInstance",
      "id": "2409322E-E019-4AFA-8993-A485C9C7AFE0"
    },
    {
      "class": "symbolInstance",
      "id": "39EF1458-54AF-4FEA-ACE0-4CCE85D4B6A3"
    },
    {
      "class": "symbolInstance",
      "id": "92042DF7-CABD-4C31-8ABB-FEDE65668382"
    }
  ],
  "name": "timeline",
  "nameIsFixed": true,
  "resizingConstraint": 63,
  "resizingType": 0,
  "rotation": 0,
  "shouldBreakMaskChain": false,
  "style": {
    "_class": "style",
    "endDecorationType": 0,
    "miterLimit": 10,
    "startDecorationType": 0
  }
}