{
  "propertyPanelToggleStates" : {
    "Filters" : false
  },
  "deviceOrientation" : 0,
  "sharedPrototype" : 0,
  "contentScale" : 1,
  "deviceType" : "fullscreen",
  "selectedHand" : "",
  "updateDelay" : 0.3,
  "deviceScale" : 1,
  "foldedCodeRanges" : [
    "{0, 192}",
    "{193, 93}",
    "{287, 52}",
    "{340, 705}",
    "{1046, 1305}"
  ],
  "orientation" : 0
}