{
  "_class": "group",
  "do_objectID": "FE368A3B-F232-4709-8079-81DC889E929D",
  "exportOptions": {
    "_class": "exportOptions",
    "exportFormats": [
    ],
    "includedLayerIds": [
    ],
    "layerOptions": 0,
    "shouldTrim": false
  },
  "frame": {
    "_class": "rect",
    "constrainProportions": false,
    "height": 24,
    "width": 575,
    "x": 0,
    "y": 12
  },
  "hasClickThrough": false,
  "isFlippedHorizontal": false,
  "isFlippedVertical": false,
  "isLocked": false,
  "isVisible": true,
  "layerListExpandedType": 0,
  "layers": [
    {
      "class": "text",
      "id": "3562CDD1-ADB3-4637-9578-8982B50C0847"
    },
    {
      "class": "text",
      "id": "2C15F7CA-06E7-406E-ABEA-43637D4BF60A"
    },
    {
      "class": "shapeGroup",
      "id": "5C8DBE25-D756-44E0-A29E-8C05FFBBF0B3"
    },
    {
      "class": "text",
      "id": "41E2895D-76DC-48F9-8C31-8E34924250C1"
    },
    {
      "class": "text",
      "id": "A89757AB-3248-4012-9BE1-C0152B85F398"
    },
    {
      "class": "symbolInstance",
      "id": "284C317F-3F33-47EE-8A1F-39E4E2B8D5C4"
    }
  ],
  "name": "left-aligned",
  "nameIsFixed": true,
  "resizingConstraint": 9,
  "resizingType": 0,
  "rotation": 0,
  "shouldBreakMaskChain": false,
  "style": {
    "_class": "style",
    "endDecorationType": 0,
    "miterLimit": 10,
    "startDecorationType": 0
  }
}