{
  "_class": "shapePath",
  "booleanOperation": -1,
  "do_objectID": "503DFDBA-4878-4F35-A24C-3AC8B978E9C1",
  "edited": true,
  "exportOptions": {
    "_class": "exportOptions",
    "exportFormats": [
    ],
    "includedLayerIds": [
    ],
    "layerOptions": 0,
    "shouldTrim": false
  },
  "frame": {
    "_class": "rect",
    "constrainProportions": false,
    "height": 1.999999999999999,
    "width": 1.978696551996126,
    "x": 2.010657880912201,
    "y": 7.000000000000001
  },
  "isFlippedHorizontal": false,
  "isFlippedVertical": false,
  "isLocked": false,
  "isVisible": true,
  "layerListExpandedType": 0,
  "name": "Path",
  "nameIsFixed": false,
  "path": {
    "_class": "path",
    "isClosed": true,
    "pointRadiusBehaviour": 1,
    "points": [
      {
        "_class": "curvePoint",
        "cornerRadius": 0,
        "curveFrom": "{0.9933345964722653, 0.96101579514217583}",
        "curveMode": 4,
        "curveTo": "{1, 0.99999999999982236}",
        "hasCurveFrom": true,
        "hasCurveTo": false,
        "point": "{1, 0.99999999999982236}"
      },
      {
        "_class": "curvePoint",
        "cornerRadius": 0,
        "curveFrom": "{0.96074740512444601, 0.88445298400680272}",
        "curveMode": 4,
        "curveTo": "{0.98039681557007619, 0.9221667269802456}",
        "hasCurveFrom": false,
        "hasCurveTo": true,
        "point": "{0.96074740512444601, 0.88445298400680272}"
      },
      {
        "_class": "curvePoint",
        "cornerRadius": 0,
        "curveFrom": "{0.49993449363884057, 0}",
        "curveMode": 1,
        "curveTo": "{0.49993449363884057, 0}",
        "hasCurveFrom": false,
        "hasCurveTo": false,
        "point": "{0.49993449363884057, 0}"
      },
      {
        "_class": "curvePoint",
        "cornerRadius": 0,
        "curveFrom": "{0.019915326658704675, 0.92131616548531081}",
        "curveMode": 4,
        "curveTo": "{0.039121582153233574, 0.88445298400680361}",
        "hasCurveFrom": true,
        "hasCurveTo": false,
        "point": "{0.039121582153233574, 0.88445298400680361}"
      },
      {
        "_class": "curvePoint",
        "cornerRadius": 0,
        "curveFrom": "{0, 1}",
        "curveMode": 4,
        "curveTo": "{0.0067810659887719187, 0.96020902434161126}",
        "hasCurveFrom": false,
        "hasCurveTo": true,
        "point": "{0, 1}"
      },
      {
        "_class": "curvePoint",
        "cornerRadius": 0,
        "curveFrom": "{0.99999999999854383, 1}",
        "curveMode": 1,
        "curveTo": "{0.99999999999854383, 1}",
        "hasCurveFrom": false,
        "hasCurveTo": false,
        "point": "{0.99999999999854383, 1}"
      }
    ]
  },
  "resizingConstraint": 63,
  "resizingType": 0,
  "rotation": 0,
  "shouldBreakMaskChain": false
}