{
  "_class": "group",
  "do_objectID": "FC15B008-919D-44B1-8F21-7995E7AE53D3",
  "exportOptions": {
    "_class": "exportOptions",
    "exportFormats": [
    ],
    "includedLayerIds": [
    ],
    "layerOptions": 0,
    "shouldTrim": false
  },
  "frame": {
    "_class": "rect",
    "constrainProportions": false,
    "height": 16,
    "width": 58,
    "x": 34,
    "y": 4
  },
  "hasClickThrough": false,
  "isFlippedHorizontal": false,
  "isFlippedVertical": false,
  "isLocked": false,
  "isVisible": true,
  "layerListExpandedType": 1,
  "layers": [
    {
      "class": "shapeGroup",
      "id": "552983BE-F29F-4883-88A3-BECF506ED3E8"
    },
    {
      "class": "shapeGroup",
      "id": "40020024-EF1B-4C21-9233-CA17D532F115"
    },
    {
      "class": "shapeGroup",
      "id": "F4836769-B264-4196-9E14-BD578FBF79EC"
    },
    {
      "class": "shapeGroup",
      "id": "6FEB99B1-548D-4557-80AC-71D57C865964"
    },
    {
      "class": "shapeGroup",
      "id": "54363FB6-BEDF-4B93-A4F7-4609C3D96E9E"
    },
    {
      "class": "shapeGroup",
      "id": "2681A0B4-F234-478D-83E6-710F22D6E543"
    },
    {
      "class": "shapeGroup",
      "id": "51CB6109-2B33-4E61-84FA-7294B4430E20"
    }
  ],
  "name": "logo-name",
  "nameIsFixed": true,
  "resizingConstraint": 63,
  "resizingType": 0,
  "rotation": 0,
  "shouldBreakMaskChain": false,
  "style": {
    "_class": "style",
    "endDecorationType": 0,
    "miterLimit": 10,
    "startDecorationType": 0
  }
}