{
  "_class": "group",
  "do_objectID": "FCA5E4C9-57C8-4DB6-B7D2-623C6AA7847B",
  "exportOptions": {
    "_class": "exportOptions",
    "exportFormats": [
    ],
    "includedLayerIds": [
    ],
    "layerOptions": 0,
    "shouldTrim": false
  },
  "frame": {
    "_class": "rect",
    "constrainProportions": false,
    "height": 625,
    "width": 1448,
    "x": 11,
    "y": 0
  },
  "hasClickThrough": false,
  "isFlippedHorizontal": false,
  "isFlippedVertical": false,
  "isLocked": false,
  "isVisible": true,
  "layerListExpandedType": 2,
  "layers": [
    {
      "class": "shapeGroup",
      "id": "1F03F08E-3043-4E59-AB19-4310ADE91A1C"
    },
    {
      "class": "shapeGroup",
      "id": "06228457-F462-4031-A435-22045A3AAEDD"
    },
    {
      "class": "shapeGroup",
      "id": "2BF38586-B303-4B04-9754-7C4C95B22EC0"
    }
  ],
  "name": "timeline-unit-weekendday-bg",
  "nameIsFixed": true,
  "resizingConstraint": 63,
  "resizingType": 0,
  "rotation": 0,
  "shouldBreakMaskChain": false,
  "style": {
    "_class": "style",
    "endDecorationType": 0,
    "miterLimit": 10,
    "startDecorationType": 0
  }
}